interactions:
- request:
    body: null
    headers:
      Accept:
      - '*/*'
      Accept-Crs:
      - EPSG:4326
      Accept-Encoding:
      - gzip, deflate
      Authorization:
      - Bearer eyJhbGciOiJIUzI1NiIsInR5cCI6IkpXVCJ9.eyJpc3MiOiJ0ZXN0LXZjciIsImlhdCI6MTc1MTUyNDg3NSwiZXhwIjoxNzUxNTY4MDc1LCJjbGllbnRfaWQiOiJ0ZXN0LXZjciIsInVzZXJfaWQiOiIiLCJ1c2VyX3JlcHJlc2VudGF0aW9uIjoiIn0._Id01KdR0ctHMYmFGIKkjwgDPg97xdxDuPPm6q0aPWA
      Connection:
      - keep-alive
      User-Agent:
      - python-requests/2.32.4
    method: GET
    uri: http://localhost:8003/catalogi/api/v1/zaaktypen?pageSize=10&page=1&catalogus=http%3A%2F%2Flocalhost%3A8003%2Fcatalogi%2Fapi%2Fv1%2Fcatalogussen%2Fec77ad39-0954-4aeb-bcf2-1beefbadf00d&status=alles
  response:
    body:
      string: '{"count":0,"next":null,"previous":null,"results":[]}'
    headers:
      API-version:
      - 1.3.1
      Allow:
      - GET, POST, HEAD, OPTIONS
      Connection:
      - keep-alive
      Content-Length:
      - '52'
      Content-Security-Policy:
      - 'script-src ''self'' ''unsafe-inline'' cdnjs.cloudflare.com cdn.jsdelivr.net;
        frame-ancestors ''none''; default-src ''self''; object-src ''none''; connect-src
        ''self'' raw.githubusercontent.com; form-action ''self''; frame-src ''self'';
        worker-src ''self'' blob:; base-uri ''self''; font-src ''self'' fonts.gstatic.com;
        img-src ''self'' data: cdn.redoc.ly cdnjs.cloudflare.com tile.openstreetmap.org;
        style-src ''self'' ''unsafe-inline'' fonts.googleapis.com cdnjs.cloudflare.com
        cdn.jsdelivr.net'
      Content-Type:
      - application/json
      Cross-Origin-Opener-Policy:
      - same-origin
      Date:
      - Thu, 03 Jul 2025 06:41:15 GMT
      Referrer-Policy:
      - same-origin
      Server:
      - nginx/1.27.4
      Vary:
      - Accept, origin
      X-Content-Type-Options:
      - nosniff
      X-Frame-Options:
      - DENY
    status:
      code: 200
      message: OK
- request:
    body: null
    headers:
      Accept:
      - '*/*'
      Accept-Crs:
      - EPSG:4326
      Accept-Encoding:
      - gzip, deflate
      Authorization:
      - Bearer eyJhbGciOiJIUzI1NiIsInR5cCI6IkpXVCJ9.eyJpc3MiOiJ0ZXN0LXZjciIsImlhdCI6MTc1MTUyNDg3NSwiZXhwIjoxNzUxNTY4MDc1LCJjbGllbnRfaWQiOiJ0ZXN0LXZjciIsInVzZXJfaWQiOiIiLCJ1c2VyX3JlcHJlc2VudGF0aW9uIjoiIn0._Id01KdR0ctHMYmFGIKkjwgDPg97xdxDuPPm6q0aPWA
      Connection:
      - keep-alive
      User-Agent:
      - python-requests/2.32.4
    method: GET
    uri: http://localhost:8003/catalogi/api/v1/zaaktypen?pageSize=10&page=1&catalogus=http%3A%2F%2Flocalhost%3A8003%2Fcatalogi%2Fapi%2Fv1%2Fcatalogussen%2Fec77ad39-0954-4aeb-bcf2-6f45263cde77&status=alles
  response:
    body:
      string: '{"count":24,"next":"http://localhost:8003/catalogi/api/v1/zaaktypen?catalogus=http%3A%2F%2Flocalhost%3A8003%2Fcatalogi%2Fapi%2Fv1%2Fcatalogussen%2Fec77ad39-0954-4aeb-bcf2-6f45263cde77&page=2&pageSize=10&status=alles","previous":null,"results":[{"url":"http://localhost:8003/catalogi/api/v1/zaaktypen/968a6460-0f97-4e83-8740-62b5c685babe","identificatie":"ZAAKTYPE-2018-0000000002TestConcept","omschrijving":"Destruction
        confirmation type","omschrijvingGeneriek":"","vertrouwelijkheidaanduiding":"openbaar","doel":"To
        confirm that a destruction list has been correctly processed.","aanleiding":"When
        a destructio list is processed by Open Archiefbeheer","toelichting":"","indicatieInternOfExtern":"extern","handelingInitiator":"indienen","onderwerp":"Destruction","handelingBehandelaar":"uitvoeren","doorlooptijd":"P30D","servicenorm":null,"opschortingEnAanhoudingMogelijk":true,"verlengingMogelijk":false,"verlengingstermijn":null,"trefwoorden":[],"publicatieIndicatie":true,"publicatietekst":"","verantwoordingsrelatie":[],"productenOfDiensten":["https://example.com/product/123"],"selectielijstProcestype":"https://selectielijst.openzaak.nl/api/v1/procestypen/c844637e-6393-4202-b030-e1bffb08a9b0","referentieproces":{"naam":"ReferentieProces
        0","link":""},"concept":true,"verantwoordelijke":"100000000","beginGeldigheid":"2025-03-21","eindeGeldigheid":null,"versiedatum":"2018-01-01","beginObject":"2025-03-21","eindeObject":null,"catalogus":"http://localhost:8003/catalogi/api/v1/catalogussen/ec77ad39-0954-4aeb-bcf2-6f45263cde77","statustypen":[],"resultaattypen":[],"eigenschappen":[],"informatieobjecttypen":[],"roltypen":[],"besluittypen":[],"deelzaaktypen":[],"gerelateerdeZaaktypen":[],"zaakobjecttypen":[]},{"url":"http://localhost:8003/catalogi/api/v1/zaaktypen/5bb7810b-17d5-4e7c-acdd-7360bdb0bd7d","identificatie":"ZAAKTYPE-2018-0000000002TestConcept","omschrijving":"Destruction
        confirmation type","omschrijvingGeneriek":"","vertrouwelijkheidaanduiding":"openbaar","doel":"To
        confirm that a destruction list has been correctly processed.","aanleiding":"When
        a destructio list is processed by Open Archiefbeheer","toelichting":"","indicatieInternOfExtern":"extern","handelingInitiator":"indienen","onderwerp":"Destruction","handelingBehandelaar":"uitvoeren","doorlooptijd":"P30D","servicenorm":null,"opschortingEnAanhoudingMogelijk":true,"verlengingMogelijk":false,"verlengingstermijn":null,"trefwoorden":[],"publicatieIndicatie":true,"publicatietekst":"","verantwoordingsrelatie":[],"productenOfDiensten":["https://example.com/product/123"],"selectielijstProcestype":"https://selectielijst.openzaak.nl/api/v1/procestypen/c844637e-6393-4202-b030-e1bffb08a9b0","referentieproces":{"naam":"ReferentieProces
        0","link":""},"concept":true,"verantwoordelijke":"100000000","beginGeldigheid":"2025-03-21","eindeGeldigheid":null,"versiedatum":"2018-01-01","beginObject":"2025-03-21","eindeObject":null,"catalogus":"http://localhost:8003/catalogi/api/v1/catalogussen/ec77ad39-0954-4aeb-bcf2-6f45263cde77","statustypen":[],"resultaattypen":[],"eigenschappen":[],"informatieobjecttypen":[],"roltypen":[],"besluittypen":[],"deelzaaktypen":[],"gerelateerdeZaaktypen":[],"zaakobjecttypen":[]},{"url":"http://localhost:8003/catalogi/api/v1/zaaktypen/9170753a-19ab-4f0c-affe-efbe0bf3b92a","identificatie":"ZAAKTYPE-2018-0000000002TestConcept","omschrijving":"Destruction
        confirmation type","omschrijvingGeneriek":"","vertrouwelijkheidaanduiding":"openbaar","doel":"To
        confirm that a destruction list has been correctly processed.","aanleiding":"When
        a destructio list is processed by Open Archiefbeheer","toelichting":"","indicatieInternOfExtern":"extern","handelingInitiator":"indienen","onderwerp":"Destruction","handelingBehandelaar":"uitvoeren","doorlooptijd":"P30D","servicenorm":null,"opschortingEnAanhoudingMogelijk":true,"verlengingMogelijk":false,"verlengingstermijn":null,"trefwoorden":[],"publicatieIndicatie":true,"publicatietekst":"","verantwoordingsrelatie":[],"productenOfDiensten":["https://example.com/product/123"],"selectielijstProcestype":"https://selectielijst.openzaak.nl/api/v1/procestypen/c844637e-6393-4202-b030-e1bffb08a9b0","referentieproces":{"naam":"ReferentieProces
        0","link":""},"concept":true,"verantwoordelijke":"100000000","beginGeldigheid":"2025-03-21","eindeGeldigheid":null,"versiedatum":"2018-01-01","beginObject":"2025-03-21","eindeObject":null,"catalogus":"http://localhost:8003/catalogi/api/v1/catalogussen/ec77ad39-0954-4aeb-bcf2-6f45263cde77","statustypen":[],"resultaattypen":[],"eigenschappen":[],"informatieobjecttypen":[],"roltypen":[],"besluittypen":[],"deelzaaktypen":[],"gerelateerdeZaaktypen":[],"zaakobjecttypen":[]},{"url":"http://localhost:8003/catalogi/api/v1/zaaktypen/aaa565cd-d92b-4643-984b-2b0891443494","identificatie":"ZAAKTYPE-2018-0000000002TestConcept","omschrijving":"Destruction
        confirmation type","omschrijvingGeneriek":"","vertrouwelijkheidaanduiding":"openbaar","doel":"To
        confirm that a destruction list has been correctly processed.","aanleiding":"When
        a destructio list is processed by Open Archiefbeheer","toelichting":"","indicatieInternOfExtern":"extern","handelingInitiator":"indienen","onderwerp":"Destruction","handelingBehandelaar":"uitvoeren","doorlooptijd":"P30D","servicenorm":null,"opschortingEnAanhoudingMogelijk":true,"verlengingMogelijk":false,"verlengingstermijn":null,"trefwoorden":[],"publicatieIndicatie":true,"publicatietekst":"","verantwoordingsrelatie":[],"productenOfDiensten":["https://example.com/product/123"],"selectielijstProcestype":"https://selectielijst.openzaak.nl/api/v1/procestypen/c844637e-6393-4202-b030-e1bffb08a9b0","referentieproces":{"naam":"ReferentieProces
        0","link":""},"concept":true,"verantwoordelijke":"100000000","beginGeldigheid":"2025-03-21","eindeGeldigheid":null,"versiedatum":"2018-01-01","beginObject":"2025-03-21","eindeObject":null,"catalogus":"http://localhost:8003/catalogi/api/v1/catalogussen/ec77ad39-0954-4aeb-bcf2-6f45263cde77","statustypen":[],"resultaattypen":[],"eigenschappen":[],"informatieobjecttypen":[],"roltypen":[],"besluittypen":[],"deelzaaktypen":[],"gerelateerdeZaaktypen":[],"zaakobjecttypen":[]},{"url":"http://localhost:8003/catalogi/api/v1/zaaktypen/73fd9063-f591-47fd-be91-9ab902fcb9a5","identificatie":"ZAAKTYPE-2018-0000000002TestConcept","omschrijving":"Destruction
        confirmation type","omschrijvingGeneriek":"","vertrouwelijkheidaanduiding":"openbaar","doel":"To
        confirm that a destruction list has been correctly processed.","aanleiding":"When
        a destructio list is processed by Open Archiefbeheer","toelichting":"","indicatieInternOfExtern":"extern","handelingInitiator":"indienen","onderwerp":"Destruction","handelingBehandelaar":"uitvoeren","doorlooptijd":"P30D","servicenorm":null,"opschortingEnAanhoudingMogelijk":true,"verlengingMogelijk":false,"verlengingstermijn":null,"trefwoorden":[],"publicatieIndicatie":true,"publicatietekst":"","verantwoordingsrelatie":[],"productenOfDiensten":["https://example.com/product/123"],"selectielijstProcestype":"https://selectielijst.openzaak.nl/api/v1/procestypen/c844637e-6393-4202-b030-e1bffb08a9b0","referentieproces":{"naam":"ReferentieProces
        0","link":""},"concept":true,"verantwoordelijke":"100000000","beginGeldigheid":"2025-03-21","eindeGeldigheid":null,"versiedatum":"2018-01-01","beginObject":"2025-03-21","eindeObject":null,"catalogus":"http://localhost:8003/catalogi/api/v1/catalogussen/ec77ad39-0954-4aeb-bcf2-6f45263cde77","statustypen":[],"resultaattypen":[],"eigenschappen":[],"informatieobjecttypen":[],"roltypen":[],"besluittypen":[],"deelzaaktypen":[],"gerelateerdeZaaktypen":[],"zaakobjecttypen":[]},{"url":"http://localhost:8003/catalogi/api/v1/zaaktypen/248bc2af-1009-4d05-90c2-1249075e0d9c","identificatie":"ZAAKTYPE-2018-0000000002TestConcept","omschrijving":"Destruction
        confirmation type","omschrijvingGeneriek":"","vertrouwelijkheidaanduiding":"openbaar","doel":"To
        confirm that a destruction list has been correctly processed.","aanleiding":"When
        a destructio list is processed by Open Archiefbeheer","toelichting":"","indicatieInternOfExtern":"extern","handelingInitiator":"indienen","onderwerp":"Destruction","handelingBehandelaar":"uitvoeren","doorlooptijd":"P30D","servicenorm":null,"opschortingEnAanhoudingMogelijk":true,"verlengingMogelijk":false,"verlengingstermijn":null,"trefwoorden":[],"publicatieIndicatie":true,"publicatietekst":"","verantwoordingsrelatie":[],"productenOfDiensten":["https://example.com/product/123"],"selectielijstProcestype":"https://selectielijst.openzaak.nl/api/v1/procestypen/c844637e-6393-4202-b030-e1bffb08a9b0","referentieproces":{"naam":"ReferentieProces
        0","link":""},"concept":true,"verantwoordelijke":"100000000","beginGeldigheid":"2025-03-21","eindeGeldigheid":null,"versiedatum":"2018-01-01","beginObject":"2025-03-21","eindeObject":null,"catalogus":"http://localhost:8003/catalogi/api/v1/catalogussen/ec77ad39-0954-4aeb-bcf2-6f45263cde77","statustypen":[],"resultaattypen":[],"eigenschappen":[],"informatieobjecttypen":[],"roltypen":[],"besluittypen":[],"deelzaaktypen":[],"gerelateerdeZaaktypen":[],"zaakobjecttypen":[]},{"url":"http://localhost:8003/catalogi/api/v1/zaaktypen/15ede494-4ec7-45a7-b620-aa7157fd535e","identificatie":"ZAAKTYPE-2020-0000000001TestConcept","omschrijving":"Testing
        resultaattypen process","omschrijvingGeneriek":"","vertrouwelijkheidaanduiding":"openbaar","doel":"Trouble
        red compare produce animal. Everything today Democrat student enter. By probably
        adult.","aanleiding":"Couple toward trip old nice memory system instead.","toelichting":"","indicatieInternOfExtern":"extern","handelingInitiator":"indienen","onderwerp":"Evenementvergunning","handelingBehandelaar":"uitvoeren","doorlooptijd":"P30D","servicenorm":null,"opschortingEnAanhoudingMogelijk":true,"verlengingMogelijk":false,"verlengingstermijn":null,"trefwoorden":[],"publicatieIndicatie":true,"publicatietekst":"","verantwoordingsrelatie":[],"productenOfDiensten":["https://example.com/product/123"],"selectielijstProcestype":"https://selectielijst.openzaak.nl/api/v1/procestypen/aa8aa2fd-b9c6-4e34-9a6c-58a677f60ea0","referentieproces":{"naam":"ReferentieProces
        0","link":""},"concept":true,"verantwoordelijke":"100000000","beginGeldigheid":"2018-01-01","eindeGeldigheid":null,"versiedatum":"2018-01-01","beginObject":"2018-01-01","eindeObject":null,"catalogus":"http://localhost:8003/catalogi/api/v1/catalogussen/ec77ad39-0954-4aeb-bcf2-6f45263cde77","statustypen":[],"resultaattypen":[],"eigenschappen":[],"informatieobjecttypen":[],"roltypen":[],"besluittypen":[],"deelzaaktypen":[],"gerelateerdeZaaktypen":[],"zaakobjecttypen":[]},{"url":"http://localhost:8003/catalogi/api/v1/zaaktypen/234cd9be-1909-47b6-be6c-2c11e4751c37","identificatie":"ZAAKTYPE-2020-0000000001TestConcept","omschrijving":"Testing
        resultaattypen process","omschrijvingGeneriek":"","vertrouwelijkheidaanduiding":"openbaar","doel":"Trouble
        red compare produce animal. Everything today Democrat student enter. By probably
        adult.","aanleiding":"Couple toward trip old nice memory system instead.","toelichting":"","indicatieInternOfExtern":"extern","handelingInitiator":"indienen","onderwerp":"Evenementvergunning","handelingBehandelaar":"uitvoeren","doorlooptijd":"P30D","servicenorm":null,"opschortingEnAanhoudingMogelijk":true,"verlengingMogelijk":false,"verlengingstermijn":null,"trefwoorden":[],"publicatieIndicatie":true,"publicatietekst":"","verantwoordingsrelatie":[],"productenOfDiensten":["https://example.com/product/123"],"selectielijstProcestype":"https://selectielijst.openzaak.nl/api/v1/procestypen/aa8aa2fd-b9c6-4e34-9a6c-58a677f60ea0","referentieproces":{"naam":"ReferentieProces
        0","link":""},"concept":true,"verantwoordelijke":"100000000","beginGeldigheid":"2018-01-01","eindeGeldigheid":null,"versiedatum":"2018-01-01","beginObject":"2018-01-01","eindeObject":null,"catalogus":"http://localhost:8003/catalogi/api/v1/catalogussen/ec77ad39-0954-4aeb-bcf2-6f45263cde77","statustypen":[],"resultaattypen":[],"eigenschappen":[],"informatieobjecttypen":[],"roltypen":[],"besluittypen":[],"deelzaaktypen":[],"gerelateerdeZaaktypen":[],"zaakobjecttypen":[]},{"url":"http://localhost:8003/catalogi/api/v1/zaaktypen/643d94cb-8466-4f84-a4c9-08406dd09165","identificatie":"ZAAKTYPE-2020-0000000001TestConcept","omschrijving":"Testing
        resultaattypen process","omschrijvingGeneriek":"","vertrouwelijkheidaanduiding":"openbaar","doel":"Trouble
        red compare produce animal. Everything today Democrat student enter. By probably
        adult.","aanleiding":"Couple toward trip old nice memory system instead.","toelichting":"","indicatieInternOfExtern":"extern","handelingInitiator":"indienen","onderwerp":"Evenementvergunning","handelingBehandelaar":"uitvoeren","doorlooptijd":"P30D","servicenorm":null,"opschortingEnAanhoudingMogelijk":true,"verlengingMogelijk":false,"verlengingstermijn":null,"trefwoorden":[],"publicatieIndicatie":true,"publicatietekst":"","verantwoordingsrelatie":[],"productenOfDiensten":["https://example.com/product/123"],"selectielijstProcestype":"https://selectielijst.openzaak.nl/api/v1/procestypen/aa8aa2fd-b9c6-4e34-9a6c-58a677f60ea0","referentieproces":{"naam":"ReferentieProces
        0","link":""},"concept":true,"verantwoordelijke":"100000000","beginGeldigheid":"2018-01-01","eindeGeldigheid":null,"versiedatum":"2018-01-01","beginObject":"2018-01-01","eindeObject":null,"catalogus":"http://localhost:8003/catalogi/api/v1/catalogussen/ec77ad39-0954-4aeb-bcf2-6f45263cde77","statustypen":[],"resultaattypen":[],"eigenschappen":[],"informatieobjecttypen":[],"roltypen":[],"besluittypen":[],"deelzaaktypen":[],"gerelateerdeZaaktypen":[],"zaakobjecttypen":[]},{"url":"http://localhost:8003/catalogi/api/v1/zaaktypen/42fa5f77-72e3-41a5-986b-e177ce5b98a1","identificatie":"ZAAKTYPE-2020-0000000001TestConcept","omschrijving":"Testing
        resultaattypen process","omschrijvingGeneriek":"","vertrouwelijkheidaanduiding":"openbaar","doel":"Trouble
        red compare produce animal. Everything today Democrat student enter. By probably
        adult.","aanleiding":"Couple toward trip old nice memory system instead.","toelichting":"","indicatieInternOfExtern":"extern","handelingInitiator":"indienen","onderwerp":"Evenementvergunning","handelingBehandelaar":"uitvoeren","doorlooptijd":"P30D","servicenorm":null,"opschortingEnAanhoudingMogelijk":true,"verlengingMogelijk":false,"verlengingstermijn":null,"trefwoorden":[],"publicatieIndicatie":true,"publicatietekst":"","verantwoordingsrelatie":[],"productenOfDiensten":["https://example.com/product/123"],"selectielijstProcestype":"https://selectielijst.openzaak.nl/api/v1/procestypen/aa8aa2fd-b9c6-4e34-9a6c-58a677f60ea0","referentieproces":{"naam":"ReferentieProces
        0","link":""},"concept":true,"verantwoordelijke":"100000000","beginGeldigheid":"2018-01-01","eindeGeldigheid":null,"versiedatum":"2018-01-01","beginObject":"2018-01-01","eindeObject":null,"catalogus":"http://localhost:8003/catalogi/api/v1/catalogussen/ec77ad39-0954-4aeb-bcf2-6f45263cde77","statustypen":[],"resultaattypen":[],"eigenschappen":[],"informatieobjecttypen":[],"roltypen":[],"besluittypen":[],"deelzaaktypen":[],"gerelateerdeZaaktypen":[],"zaakobjecttypen":[]}]}'
    headers:
      API-version:
      - 1.3.1
      Allow:
      - GET, POST, HEAD, OPTIONS
      Connection:
      - keep-alive
      Content-Length:
      - '15117'
      Content-Security-Policy:
      - 'script-src ''self'' ''unsafe-inline'' cdnjs.cloudflare.com cdn.jsdelivr.net;
        frame-ancestors ''none''; default-src ''self''; object-src ''none''; connect-src
        ''self'' raw.githubusercontent.com; form-action ''self''; frame-src ''self'';
        worker-src ''self'' blob:; base-uri ''self''; font-src ''self'' fonts.gstatic.com;
        img-src ''self'' data: cdn.redoc.ly cdnjs.cloudflare.com tile.openstreetmap.org;
        style-src ''self'' ''unsafe-inline'' fonts.googleapis.com cdnjs.cloudflare.com
        cdn.jsdelivr.net'
      Content-Type:
      - application/json
      Cross-Origin-Opener-Policy:
      - same-origin
      Date:
      - Thu, 03 Jul 2025 06:41:15 GMT
      Referrer-Policy:
      - same-origin
      Server:
      - nginx/1.27.4
      Vary:
      - Accept, origin
      X-Content-Type-Options:
      - nosniff
      X-Frame-Options:
      - DENY
    status:
      code: 200
      message: OK
version: 1
