interactions:
- request:
    body: null
    headers:
      Accept:
      - '*/*'
      Accept-Crs:
      - EPSG:4326
      Accept-Encoding:
      - gzip, deflate
      Connection:
      - keep-alive
    method: GET
    uri: http://localhost:8003/catalogi/api/v1/zaaktypen?pageSize=10&page=1&status=alles
  response:
    body:
      string: '{"count":58,"next":"http://localhost:8003/catalogi/api/v1/zaaktypen?page=2&pageSize=10&status=alles","previous":null,"results":[{"url":"http://localhost:8003/catalogi/api/v1/zaaktypen/b9cc481e-dd63-49f6-a1bb-ad993dd97e7b","identificatie":"ZAAKTYPE-2025-0000000054","omschrijving":"Another
        test zaaktype","omschrijvingGeneriek":"","vertrouwelijkheidaanduiding":"geheim","doel":"New
        Zaaktype 001","aanleiding":"New Zaaktype 001","toelichting":"","indicatieInternOfExtern":"intern","handelingInitiator":"aanvragen","onderwerp":"New
        Zaaktype 001","handelingBehandelaar":"handelin","doorlooptijd":"P40D","servicenorm":null,"opschortingEnAanhoudingMogelijk":false,"verlengingMogelijk":true,"verlengingstermijn":"P40D","trefwoorden":[],"publicatieIndicatie":false,"publicatietekst":"","verantwoordingsrelatie":[],"productenOfDiensten":["https://example.com/product/321"],"selectielijstProcestype":"https://selectielijst.openzaak.nl/api/v1/procestypen/aa8aa2fd-b9c6-4e34-9a6c-58a677f60ea0","referentieproces":{"naam":"ReferentieProces
        1","link":""},"concept":true,"verantwoordelijke":"200000000","beginGeldigheid":"2025-06-19","eindeGeldigheid":null,"versiedatum":"2025-06-19","beginObject":"2025-06-19","eindeObject":null,"catalogus":"http://localhost:8003/catalogi/api/v1/catalogussen/552b3a47-8ea6-46cc-a513-14f4ebcaab9f","statustypen":[],"resultaattypen":[],"eigenschappen":[],"informatieobjecttypen":[],"roltypen":[],"besluittypen":[],"deelzaaktypen":[],"gerelateerdeZaaktypen":[],"zaakobjecttypen":[]},{"url":"http://localhost:8003/catalogi/api/v1/zaaktypen/0842d41d-b685-432a-9188-dfe564c8a126","identificatie":"ZAAKTYPE-2025-0000000053","omschrijving":"Another
        test zaaktype","omschrijvingGeneriek":"","vertrouwelijkheidaanduiding":"geheim","doel":"New
        Zaaktype 001","aanleiding":"New Zaaktype 001","toelichting":"","indicatieInternOfExtern":"intern","handelingInitiator":"aanvragen","onderwerp":"New
        Zaaktype 001","handelingBehandelaar":"handelin","doorlooptijd":"P40D","servicenorm":null,"opschortingEnAanhoudingMogelijk":false,"verlengingMogelijk":true,"verlengingstermijn":"P40D","trefwoorden":[],"publicatieIndicatie":false,"publicatietekst":"","verantwoordingsrelatie":[],"productenOfDiensten":["https://example.com/product/321"],"selectielijstProcestype":"https://selectielijst.openzaak.nl/api/v1/procestypen/aa8aa2fd-b9c6-4e34-9a6c-58a677f60ea0","referentieproces":{"naam":"ReferentieProces
        1","link":""},"concept":true,"verantwoordelijke":"200000000","beginGeldigheid":"2025-06-19","eindeGeldigheid":null,"versiedatum":"2025-06-19","beginObject":"2025-06-19","eindeObject":null,"catalogus":"http://localhost:8003/catalogi/api/v1/catalogussen/df67bfcd-f2cc-480e-ae11-6dd5dddf690c","statustypen":["http://localhost:8003/catalogi/api/v1/statustypen/2e8e6b37-611d-4c7a-91da-73b1933643b7"],"resultaattypen":["http://localhost:8003/catalogi/api/v1/resultaattypen/54f9cfb3-adf4-46f2-8503-28c94c34f1a4","http://localhost:8003/catalogi/api/v1/resultaattypen/f0a9f97a-a2f1-4a82-ba0a-ad85f8a5a0c6"],"eigenschappen":[],"informatieobjecttypen":["http://localhost:8003/catalogi/api/v1/informatieobjecttypen/14c81611-9f07-468c-b5f6-4554bb50b34e"],"roltypen":["http://localhost:8003/catalogi/api/v1/roltypen/e0687904-574b-4d6c-9695-2a6b0d393708"],"besluittypen":[],"deelzaaktypen":[],"gerelateerdeZaaktypen":[],"zaakobjecttypen":[]},{"url":"http://localhost:8003/catalogi/api/v1/zaaktypen/33c509f4-1920-4a1f-a10c-76059e01e58f","identificatie":"ZAAKTYPE-2025-0000000052","omschrijving":"MODIFIED
        by test test_put_zaaktype","omschrijvingGeneriek":"","vertrouwelijkheidaanduiding":"openbaar","doel":"MODIFIED","aanleiding":"MODIFIED","toelichting":"","indicatieInternOfExtern":"extern","handelingInitiator":"indienen","onderwerp":"MODIFIED","handelingBehandelaar":"handelin","doorlooptijd":"P30D","servicenorm":null,"opschortingEnAanhoudingMogelijk":false,"verlengingMogelijk":false,"verlengingstermijn":null,"trefwoorden":[],"publicatieIndicatie":false,"publicatietekst":"","verantwoordingsrelatie":[],"productenOfDiensten":["https://example.com/product/321"],"selectielijstProcestype":"https://selectielijst.openzaak.nl/api/v1/procestypen/aa8aa2fd-b9c6-4e34-9a6c-58a677f60ea0","referentieproces":{"naam":"ReferentieProces
        1","link":""},"concept":true,"verantwoordelijke":"200000000","beginGeldigheid":"2025-06-19","eindeGeldigheid":null,"versiedatum":"2025-06-19","beginObject":"2025-06-19","eindeObject":null,"catalogus":"http://localhost:8003/catalogi/api/v1/catalogussen/ec77ad39-0954-4aeb-bcf2-6f45263cde77","statustypen":[],"resultaattypen":[],"eigenschappen":[],"informatieobjecttypen":[],"roltypen":[],"besluittypen":[],"deelzaaktypen":[],"gerelateerdeZaaktypen":[],"zaakobjecttypen":[]},{"url":"http://localhost:8003/catalogi/api/v1/zaaktypen/41e6e612-69b4-4c82-b05b-da1b2a72a194","identificatie":"ZAAKTYPE-2025-0000000051","omschrijving":"Another
        test zaaktype","omschrijvingGeneriek":"","vertrouwelijkheidaanduiding":"geheim","doel":"New
        Zaaktype 001","aanleiding":"New Zaaktype 001","toelichting":"","indicatieInternOfExtern":"intern","handelingInitiator":"aanvragen","onderwerp":"New
        Zaaktype 001","handelingBehandelaar":"handelin","doorlooptijd":"P40D","servicenorm":null,"opschortingEnAanhoudingMogelijk":false,"verlengingMogelijk":true,"verlengingstermijn":"P40D","trefwoorden":[],"publicatieIndicatie":false,"publicatietekst":"","verantwoordingsrelatie":[],"productenOfDiensten":["https://example.com/product/321"],"selectielijstProcestype":"https://selectielijst.openzaak.nl/api/v1/procestypen/aa8aa2fd-b9c6-4e34-9a6c-58a677f60ea0","referentieproces":{"naam":"ReferentieProces
        1","link":""},"concept":true,"verantwoordelijke":"200000000","beginGeldigheid":"2025-06-19","eindeGeldigheid":null,"versiedatum":"2025-06-19","beginObject":"2025-06-19","eindeObject":null,"catalogus":"http://localhost:8003/catalogi/api/v1/catalogussen/378fc1a2-09f1-4e02-8f2d-4015fa05f152","statustypen":[],"resultaattypen":[],"eigenschappen":[],"informatieobjecttypen":[],"roltypen":[],"besluittypen":[],"deelzaaktypen":[],"gerelateerdeZaaktypen":[],"zaakobjecttypen":[]},{"url":"http://localhost:8003/catalogi/api/v1/zaaktypen/eb8df249-7ea3-4c34-8787-2bdb71badcf9","identificatie":"ZAAKTYPE-2025-0000000050","omschrijving":"MODIFIED
        by test test_patch_zaaktype","omschrijvingGeneriek":"","vertrouwelijkheidaanduiding":"geheim","doel":"New
        Zaaktype 001","aanleiding":"New Zaaktype 001","toelichting":"","indicatieInternOfExtern":"intern","handelingInitiator":"aanvragen","onderwerp":"New
        Zaaktype 001","handelingBehandelaar":"handelin","doorlooptijd":"P40D","servicenorm":null,"opschortingEnAanhoudingMogelijk":false,"verlengingMogelijk":true,"verlengingstermijn":"P40D","trefwoorden":[],"publicatieIndicatie":false,"publicatietekst":"","verantwoordingsrelatie":[],"productenOfDiensten":["https://example.com/product/321"],"selectielijstProcestype":"https://selectielijst.openzaak.nl/api/v1/procestypen/aa8aa2fd-b9c6-4e34-9a6c-58a677f60ea0","referentieproces":{"naam":"ReferentieProces
        1","link":""},"concept":true,"verantwoordelijke":"200000000","beginGeldigheid":"2025-06-19","eindeGeldigheid":null,"versiedatum":"2025-06-19","beginObject":"2025-06-19","eindeObject":null,"catalogus":"http://localhost:8003/catalogi/api/v1/catalogussen/6defc8b3-83c9-4a2e-9e62-cfb114d06123","statustypen":[],"resultaattypen":[],"eigenschappen":[],"informatieobjecttypen":[],"roltypen":[],"besluittypen":[],"deelzaaktypen":[],"gerelateerdeZaaktypen":[],"zaakobjecttypen":[]},{"url":"http://localhost:8003/catalogi/api/v1/zaaktypen/f3752b69-a2d3-4a02-aafc-e9404dbe8110","identificatie":"ZAAKTYPE-2025-0000000049","omschrijving":"Another
        test zaaktype","omschrijvingGeneriek":"","vertrouwelijkheidaanduiding":"openbaar","doel":"New
        Zaaktype 001","aanleiding":"New Zaaktype 001","toelichting":"","indicatieInternOfExtern":"intern","handelingInitiator":"aanvragen","onderwerp":"New
        Zaaktype 001","handelingBehandelaar":"handelin","doorlooptijd":"P40D","servicenorm":null,"opschortingEnAanhoudingMogelijk":false,"verlengingMogelijk":true,"verlengingstermijn":"P40D","trefwoorden":[],"publicatieIndicatie":false,"publicatietekst":"","verantwoordingsrelatie":[],"productenOfDiensten":["https://example.com/product/321"],"selectielijstProcestype":"https://selectielijst.openzaak.nl/api/v1/procestypen/aa8aa2fd-b9c6-4e34-9a6c-58a677f60ea0","referentieproces":{"naam":"ReferentieProces
        1","link":""},"concept":true,"verantwoordelijke":"200000000","beginGeldigheid":"2025-06-19","eindeGeldigheid":null,"versiedatum":"2025-06-19","beginObject":"2025-06-19","eindeObject":null,"catalogus":"http://localhost:8003/catalogi/api/v1/catalogussen/44f8c158-dceb-4e79-9bde-1fb0a64b00a9","statustypen":["http://localhost:8003/catalogi/api/v1/statustypen/b1bcb400-8d84-4b9b-8bc3-2c11ee9928b3","http://localhost:8003/catalogi/api/v1/statustypen/7219a6de-d36c-4f5f-ba4a-3b0bc65740da"],"resultaattypen":["http://localhost:8003/catalogi/api/v1/resultaattypen/bf50123f-3bf7-4e0a-9df4-033e609bcfee"],"eigenschappen":[],"informatieobjecttypen":[],"roltypen":["http://localhost:8003/catalogi/api/v1/roltypen/66798c1b-c985-4dd4-88e7-e0eb2d4b10b4"],"besluittypen":[],"deelzaaktypen":[],"gerelateerdeZaaktypen":[],"zaakobjecttypen":["http://localhost:8003/catalogi/api/v1/zaakobjecttypen/d3b36e40-92ec-45e4-ab58-a27159555da2"]},{"url":"http://localhost:8003/catalogi/api/v1/zaaktypen/bb334d57-3595-419d-9fa9-19cb1810b721","identificatie":"ZAAKTYPE-2025-0000000048","omschrijving":"Another
        test zaaktype","omschrijvingGeneriek":"","vertrouwelijkheidaanduiding":"openbaar","doel":"New
        Zaaktype 001","aanleiding":"New Zaaktype 001","toelichting":"","indicatieInternOfExtern":"intern","handelingInitiator":"aanvragen","onderwerp":"New
        Zaaktype 001","handelingBehandelaar":"handelin","doorlooptijd":"P40D","servicenorm":null,"opschortingEnAanhoudingMogelijk":false,"verlengingMogelijk":true,"verlengingstermijn":"P40D","trefwoorden":[],"publicatieIndicatie":false,"publicatietekst":"","verantwoordingsrelatie":[],"productenOfDiensten":["https://example.com/product/321"],"selectielijstProcestype":"https://selectielijst.openzaak.nl/api/v1/procestypen/aa8aa2fd-b9c6-4e34-9a6c-58a677f60ea0","referentieproces":{"naam":"ReferentieProces
        1","link":""},"concept":true,"verantwoordelijke":"200000000","beginGeldigheid":"2025-06-19","eindeGeldigheid":null,"versiedatum":"2025-06-19","beginObject":"2025-06-19","eindeObject":null,"catalogus":"http://localhost:8003/catalogi/api/v1/catalogussen/87c47e50-aedd-45b8-9268-4b9ee7e227a0","statustypen":[],"resultaattypen":["http://localhost:8003/catalogi/api/v1/resultaattypen/6a2b8133-2895-4055-a1e6-22f199417838"],"eigenschappen":[],"informatieobjecttypen":[],"roltypen":["http://localhost:8003/catalogi/api/v1/roltypen/4fb96a98-26bc-4620-b5cf-54c28cb15fa3"],"besluittypen":[],"deelzaaktypen":[],"gerelateerdeZaaktypen":[],"zaakobjecttypen":["http://localhost:8003/catalogi/api/v1/zaakobjecttypen/bbcd7f8e-3ba5-4c3b-a967-ff61c872649e"]},{"url":"http://localhost:8003/catalogi/api/v1/zaaktypen/3355f012-eed8-4509-b7b8-f4be50c35917","identificatie":"ZAAKTYPE-2025-0000000047","omschrijving":"Another
        test zaaktype","omschrijvingGeneriek":"","vertrouwelijkheidaanduiding":"openbaar","doel":"New
        Zaaktype 001","aanleiding":"New Zaaktype 001","toelichting":"","indicatieInternOfExtern":"intern","handelingInitiator":"aanvragen","onderwerp":"New
        Zaaktype 001","handelingBehandelaar":"handelin","doorlooptijd":"P40D","servicenorm":null,"opschortingEnAanhoudingMogelijk":false,"verlengingMogelijk":true,"verlengingstermijn":"P40D","trefwoorden":[],"publicatieIndicatie":false,"publicatietekst":"","verantwoordingsrelatie":[],"productenOfDiensten":["https://example.com/product/321"],"selectielijstProcestype":"https://selectielijst.openzaak.nl/api/v1/procestypen/aa8aa2fd-b9c6-4e34-9a6c-58a677f60ea0","referentieproces":{"naam":"ReferentieProces
        1","link":""},"concept":true,"verantwoordelijke":"200000000","beginGeldigheid":"2025-06-19","eindeGeldigheid":null,"versiedatum":"2025-06-19","beginObject":"2025-06-19","eindeObject":null,"catalogus":"http://localhost:8003/catalogi/api/v1/catalogussen/089b5f07-b573-431f-9856-b588e29620e3","statustypen":["http://localhost:8003/catalogi/api/v1/statustypen/c5435d18-e2cf-4b88-a189-f07052ca308e","http://localhost:8003/catalogi/api/v1/statustypen/7d9967ea-9247-4c13-95ef-b302765163be"],"resultaattypen":["http://localhost:8003/catalogi/api/v1/resultaattypen/a1b62733-e354-4b21-a522-1832faabbdad"],"eigenschappen":[],"informatieobjecttypen":[],"roltypen":["http://localhost:8003/catalogi/api/v1/roltypen/7eca49ad-c30c-468d-a49b-a8c295c288c2"],"besluittypen":[],"deelzaaktypen":[],"gerelateerdeZaaktypen":[],"zaakobjecttypen":["http://localhost:8003/catalogi/api/v1/zaakobjecttypen/c8079a1c-6d56-4418-a89c-81d341c8780f"]},{"url":"http://localhost:8003/catalogi/api/v1/zaaktypen/eeac70c6-ed06-4599-b0cf-df6d07484135","identificatie":"ZAAKTYPE-2025-0000000046","omschrijving":"Another
        test zaaktype","omschrijvingGeneriek":"","vertrouwelijkheidaanduiding":"openbaar","doel":"New
        Zaaktype 001","aanleiding":"New Zaaktype 001","toelichting":"","indicatieInternOfExtern":"intern","handelingInitiator":"aanvragen","onderwerp":"New
        Zaaktype 001","handelingBehandelaar":"handelin","doorlooptijd":"P40D","servicenorm":null,"opschortingEnAanhoudingMogelijk":false,"verlengingMogelijk":true,"verlengingstermijn":"P40D","trefwoorden":[],"publicatieIndicatie":false,"publicatietekst":"","verantwoordingsrelatie":[],"productenOfDiensten":["https://example.com/product/321"],"selectielijstProcestype":"https://selectielijst.openzaak.nl/api/v1/procestypen/aa8aa2fd-b9c6-4e34-9a6c-58a677f60ea0","referentieproces":{"naam":"ReferentieProces
        1","link":""},"concept":true,"verantwoordelijke":"200000000","beginGeldigheid":"2025-06-19","eindeGeldigheid":null,"versiedatum":"2025-06-19","beginObject":"2025-06-19","eindeObject":null,"catalogus":"http://localhost:8003/catalogi/api/v1/catalogussen/e8b6c4a3-7448-4289-b789-88b9d8f0f528","statustypen":["http://localhost:8003/catalogi/api/v1/statustypen/94118f91-5c68-4167-95cf-8a34b9d817f4","http://localhost:8003/catalogi/api/v1/statustypen/d9f60a1f-f563-4176-8e89-2497f1f8e2bc"],"resultaattypen":["http://localhost:8003/catalogi/api/v1/resultaattypen/9b21dd0a-b1f2-47fd-9800-9d54b4901722"],"eigenschappen":[],"informatieobjecttypen":[],"roltypen":["http://localhost:8003/catalogi/api/v1/roltypen/26f78743-6c42-4542-a966-c9f161d5f11d"],"besluittypen":[],"deelzaaktypen":[],"gerelateerdeZaaktypen":[],"zaakobjecttypen":["http://localhost:8003/catalogi/api/v1/zaakobjecttypen/91dad853-7edf-41c9-8522-0b5e93f6a2bc"]},{"url":"http://localhost:8003/catalogi/api/v1/zaaktypen/ae8ded6f-55be-4cf6-9038-57b97c0a5721","identificatie":"ZAAKTYPE-2025-0000000045","omschrijving":"Another
        test zaaktype","omschrijvingGeneriek":"","vertrouwelijkheidaanduiding":"openbaar","doel":"New
        Zaaktype 001","aanleiding":"New Zaaktype 001","toelichting":"","indicatieInternOfExtern":"intern","handelingInitiator":"aanvragen","onderwerp":"New
        Zaaktype 001","handelingBehandelaar":"handelin","doorlooptijd":"P40D","servicenorm":null,"opschortingEnAanhoudingMogelijk":false,"verlengingMogelijk":true,"verlengingstermijn":"P40D","trefwoorden":[],"publicatieIndicatie":false,"publicatietekst":"","verantwoordingsrelatie":[],"productenOfDiensten":["https://example.com/product/321"],"selectielijstProcestype":"https://selectielijst.openzaak.nl/api/v1/procestypen/aa8aa2fd-b9c6-4e34-9a6c-58a677f60ea0","referentieproces":{"naam":"ReferentieProces
        1","link":""},"concept":true,"verantwoordelijke":"200000000","beginGeldigheid":"2025-06-19","eindeGeldigheid":null,"versiedatum":"2025-06-19","beginObject":"2025-06-19","eindeObject":null,"catalogus":"http://localhost:8003/catalogi/api/v1/catalogussen/8e0dcf2f-1e4e-46e8-a6de-2cfda89db217","statustypen":[],"resultaattypen":["http://localhost:8003/catalogi/api/v1/resultaattypen/59cb2f33-b5ee-4790-8d6e-fc259c0dabd7"],"eigenschappen":[],"informatieobjecttypen":[],"roltypen":["http://localhost:8003/catalogi/api/v1/roltypen/ed48084b-e605-4557-bb42-b715aa2e2f8c"],"besluittypen":[],"deelzaaktypen":[],"gerelateerdeZaaktypen":[],"zaakobjecttypen":["http://localhost:8003/catalogi/api/v1/zaakobjecttypen/721ca819-c4b9-4208-be7b-d0e35c2318be"]}]}'
    headers:
      API-version:
      - 1.3.1
      Allow:
      - GET, POST, HEAD, OPTIONS
      Connection:
      - keep-alive
      Content-Length:
      - '16188'
      Content-Type:
      - application/json
      Cross-Origin-Opener-Policy:
      - same-origin
      Referrer-Policy:
      - same-origin
      Vary:
      - Accept, origin
      X-Content-Type-Options:
      - nosniff
      X-Frame-Options:
      - DENY
    status:
      code: 200
      message: OK
version: 1
